%YAML 1.1
%TAG !u! tag:unity3d.com,2011:
--- !u!114 &11400000
MonoBehaviour:
  m_ObjectHideFlags: 0
  m_CorrespondingSourceObject: {fileID: 0}
  m_PrefabInstance: {fileID: 0}
  m_PrefabAsset: {fileID: 0}
  m_GameObject: {fileID: 0}
  m_Enabled: 1
  m_EditorHideFlags: 0
  m_Script: {fileID: 11500000, guid: f6df0dce5269452190bf1bd9f644f796, type: 3}
  m_Name: SettingsContainer
  m_EditorClassIdentifier: 
  <CoefficientScoreToMoney>k__BackingField: 0.5
  <StartVehicleVelocity>k__BackingField: 20
  <NPCSpawnDelay>k__BackingField: 10
