%YAML 1.1
%TAG !u! tag:unity3d.com,2011:
--- !u!1 &2625229858250716039
GameObject:
  m_ObjectHideFlags: 0
  m_CorrespondingSourceObject: {fileID: 0}
  m_PrefabInstance: {fileID: 0}
  m_PrefabAsset: {fileID: 0}
  serializedVersion: 6
  m_Component:
  - component: {fileID: 3397227086639278397}
  - component: {fileID: 1768432084507371160}
  - component: {fileID: 4570675152029209170}
  - component: {fileID: 4889810937757659215}
  m_Layer: 0
  m_Name: Car1
  m_TagString: Untagged
  m_Icon: {fileID: 0}
  m_NavMeshLayer: 0
  m_StaticEditorFlags: 0
  m_IsActive: 1
--- !u!4 &3397227086639278397
Transform:
  m_ObjectHideFlags: 0
  m_CorrespondingSourceObject: {fileID: 0}
  m_PrefabInstance: {fileID: 0}
  m_PrefabAsset: {fileID: 0}
  m_GameObject: {fileID: 2625229858250716039}
  m_LocalRotation: {x: 0, y: 0, z: 0, w: 1}
  m_LocalPosition: {x: 0, y: 0, z: 0}
  m_LocalScale: {x: 1, y: 1, z: 1}
  m_ConstrainProportionsScale: 0
  m_Children: []
  m_Father: {fileID: 0}
  m_RootOrder: 0
  m_LocalEulerAnglesHint: {x: 0, y: 0, z: 0}
--- !u!33 &1768432084507371160
MeshFilter:
  m_ObjectHideFlags: 0
  m_CorrespondingSourceObject: {fileID: 0}
  m_PrefabInstance: {fileID: 0}
  m_PrefabAsset: {fileID: 0}
  m_GameObject: {fileID: 2625229858250716039}
  m_Mesh: {fileID: -8039613103989778838, guid: 8ec95e9e19320544c8af551ca74b44d1, type: 3}
--- !u!23 &4570675152029209170
MeshRenderer:
  m_ObjectHideFlags: 0
  m_CorrespondingSourceObject: {fileID: 0}
  m_PrefabInstance: {fileID: 0}
  m_PrefabAsset: {fileID: 0}
  m_GameObject: {fileID: 2625229858250716039}
  m_Enabled: 1
  m_CastShadows: 1
  m_ReceiveShadows: 1
  m_DynamicOccludee: 1
  m_StaticShadowCaster: 0
  m_MotionVectors: 1
  m_LightProbeUsage: 1
  m_ReflectionProbeUsage: 1
  m_RayTracingMode: 2
  m_RayTraceProcedural: 0
  m_RenderingLayerMask: 1
  m_RendererPriority: 0
  m_Materials:
  - {fileID: 2100000, guid: 6cc6b3ff3778d95488f87dd232b30290, type: 2}
  m_StaticBatchInfo:
    firstSubMesh: 0
    subMeshCount: 0
  m_StaticBatchRoot: {fileID: 0}
  m_ProbeAnchor: {fileID: 0}
  m_LightProbeVolumeOverride: {fileID: 0}
  m_ScaleInLightmap: 1
  m_ReceiveGI: 1
  m_PreserveUVs: 0
  m_IgnoreNormalsForChartDetection: 0
  m_ImportantGI: 0
  m_StitchLightmapSeams: 1
  m_SelectedEditorRenderState: 3
  m_MinimumChartSize: 4
  m_AutoUVMaxDistance: 0.5
  m_AutoUVMaxAngle: 89
  m_LightmapParameters: {fileID: 0}
  m_SortingLayerID: 0
  m_SortingLayer: 0
  m_SortingOrder: 0
  m_AdditionalVertexStreams: {fileID: 0}
--- !u!114 &4889810937757659215
MonoBehaviour:
  m_ObjectHideFlags: 0
  m_CorrespondingSourceObject: {fileID: 0}
  m_PrefabInstance: {fileID: 0}
  m_PrefabAsset: {fileID: 0}
  m_GameObject: {fileID: 2625229858250716039}
  m_Enabled: 1
  m_EditorHideFlags: 0
  m_Script: {fileID: 11500000, guid: 4ffaf673ff0343bb818cdc3ca0112690, type: 3}
  m_Name: 
  m_EditorClassIdentifier: 
  serializedData:
    renderer: {fileID: 4570675152029209170}
    propertyName: _BaseMap
    textures:
    - {fileID: 2800000, guid: 399d7f28057c32a42b1f3e5c3e0d51d3, type: 3}
    - {fileID: 2800000, guid: c190df53fb5f16b4382f3710ca1b7ea3, type: 3}
    - {fileID: 2800000, guid: a463dc380a27ba04b9626ead911bee62, type: 3}
    - {fileID: 2800000, guid: 8fdd9123f879e444081ba288d9743a32, type: 3}
    - {fileID: 2800000, guid: b7c128633041b3b44a1665aeada009d9, type: 3}
    - {fileID: 2800000, guid: 1e0c0be0ecd7253419d96d75a980e028, type: 3}
    - {fileID: 2800000, guid: f2c35eadbde5dcc4c8dfd218ebd89c82, type: 3}
    - {fileID: 2800000, guid: 331f8841e2e5aaf438cec193a92f7975, type: 3}
    - {fileID: 2800000, guid: cdfdc7a4b41d1e9419c364bd89392c1f, type: 3}
    - {fileID: 2800000, guid: 59dff8c87b677024098c1d8469fcf18c, type: 3}
    - {fileID: 2800000, guid: e27ac40f40b0139459c17c3771d0ff08, type: 3}
    - {fileID: 2800000, guid: d453d4a3c3ccc27449e0cc692fd07198, type: 3}
