%YAML 1.1
%TAG !u! tag:unity3d.com,2011:
--- !u!1 &4736032880890872509
GameObject:
  m_ObjectHideFlags: 0
  m_CorrespondingSourceObject: {fileID: 0}
  m_PrefabInstance: {fileID: 0}
  m_PrefabAsset: {fileID: 0}
  serializedVersion: 6
  m_Component:
  - component: {fileID: 5400401428607031303}
  - component: {fileID: 9033605030878205858}
  - component: {fileID: 6537318594768642920}
  - component: {fileID: 5582401961725992979}
  m_Layer: 0
  m_Name: Car7
  m_TagString: Untagged
  m_Icon: {fileID: 0}
  m_NavMeshLayer: 0
  m_StaticEditorFlags: 0
  m_IsActive: 1
--- !u!4 &5400401428607031303
Transform:
  m_ObjectHideFlags: 0
  m_CorrespondingSourceObject: {fileID: 0}
  m_PrefabInstance: {fileID: 0}
  m_PrefabAsset: {fileID: 0}
  m_GameObject: {fileID: 4736032880890872509}
  m_LocalRotation: {x: 0.00000008146034, y: 0, z: -0, w: 1}
  m_LocalPosition: {x: 21.416222, y: 0, z: -20.201765}
  m_LocalScale: {x: 1, y: 1, z: 1}
  m_ConstrainProportionsScale: 0
  m_Children: []
  m_Father: {fileID: 0}
  m_RootOrder: 0
  m_LocalEulerAnglesHint: {x: 0, y: 0, z: 0}
--- !u!33 &9033605030878205858
MeshFilter:
  m_ObjectHideFlags: 0
  m_CorrespondingSourceObject: {fileID: 0}
  m_PrefabInstance: {fileID: 0}
  m_PrefabAsset: {fileID: 0}
  m_GameObject: {fileID: 4736032880890872509}
  m_Mesh: {fileID: 4560294967621763500, guid: 96f68f49421c37a4fb2b51ca2361ff7f, type: 3}
--- !u!23 &6537318594768642920
MeshRenderer:
  m_ObjectHideFlags: 0
  m_CorrespondingSourceObject: {fileID: 0}
  m_PrefabInstance: {fileID: 0}
  m_PrefabAsset: {fileID: 0}
  m_GameObject: {fileID: 4736032880890872509}
  m_Enabled: 1
  m_CastShadows: 1
  m_ReceiveShadows: 1
  m_DynamicOccludee: 1
  m_StaticShadowCaster: 0
  m_MotionVectors: 1
  m_LightProbeUsage: 1
  m_ReflectionProbeUsage: 1
  m_RayTracingMode: 2
  m_RayTraceProcedural: 0
  m_RenderingLayerMask: 1
  m_RendererPriority: 0
  m_Materials:
  - {fileID: 2100000, guid: aecee52d9d40ba04b959ed8f0813d522, type: 2}
  m_StaticBatchInfo:
    firstSubMesh: 0
    subMeshCount: 0
  m_StaticBatchRoot: {fileID: 0}
  m_ProbeAnchor: {fileID: 0}
  m_LightProbeVolumeOverride: {fileID: 0}
  m_ScaleInLightmap: 1
  m_ReceiveGI: 1
  m_PreserveUVs: 0
  m_IgnoreNormalsForChartDetection: 0
  m_ImportantGI: 0
  m_StitchLightmapSeams: 1
  m_SelectedEditorRenderState: 3
  m_MinimumChartSize: 4
  m_AutoUVMaxDistance: 0.5
  m_AutoUVMaxAngle: 89
  m_LightmapParameters: {fileID: 0}
  m_SortingLayerID: 0
  m_SortingLayer: 0
  m_SortingOrder: 0
  m_AdditionalVertexStreams: {fileID: 0}
--- !u!114 &5582401961725992979
MonoBehaviour:
  m_ObjectHideFlags: 0
  m_CorrespondingSourceObject: {fileID: 0}
  m_PrefabInstance: {fileID: 0}
  m_PrefabAsset: {fileID: 0}
  m_GameObject: {fileID: 4736032880890872509}
  m_Enabled: 1
  m_EditorHideFlags: 0
  m_Script: {fileID: 11500000, guid: 4ffaf673ff0343bb818cdc3ca0112690, type: 3}
  m_Name: 
  m_EditorClassIdentifier: 
  serializedData:
    renderer: {fileID: 6537318594768642920}
    propertyName: _BaseMap
    textures:
    - {fileID: 2800000, guid: b5dd2c92f74087340a8cde783bf3decc, type: 3}
    - {fileID: 2800000, guid: 6173e4356f498de458dfdbdfe60532a6, type: 3}
    - {fileID: 2800000, guid: 69446c0f6e4b0904d827cb54969cbbd3, type: 3}
    - {fileID: 2800000, guid: c788c09d4bce87f47bd1c76804a6d994, type: 3}
    - {fileID: 2800000, guid: ada06b6c8ef8bb846bb6115f8b960dbd, type: 3}
    - {fileID: 2800000, guid: fee537a91f2a0444297bbb2c0801002c, type: 3}
