%YAML 1.1
%TAG !u! tag:unity3d.com,2011:
--- !u!1 &2335983312066748029
GameObject:
  m_ObjectHideFlags: 0
  m_CorrespondingSourceObject: {fileID: 0}
  m_PrefabInstance: {fileID: 0}
  m_PrefabAsset: {fileID: 0}
  serializedVersion: 6
  m_Component:
  - component: {fileID: 6020141455540820404}
  m_Layer: 0
  m_Name: HouseSmall
  m_TagString: Untagged
  m_Icon: {fileID: 0}
  m_NavMeshLayer: 0
  m_StaticEditorFlags: 0
  m_IsActive: 1
--- !u!4 &6020141455540820404
Transform:
  m_ObjectHideFlags: 0
  m_CorrespondingSourceObject: {fileID: 0}
  m_PrefabInstance: {fileID: 0}
  m_PrefabAsset: {fileID: 0}
  m_GameObject: {fileID: 2335983312066748029}
  m_LocalRotation: {x: 0, y: 0, z: 0, w: 1}
  m_LocalPosition: {x: 0, y: 0, z: 0}
  m_LocalScale: {x: 1, y: 1, z: 1}
  m_ConstrainProportionsScale: 0
  m_Children:
  - {fileID: 2470825633358815940}
  m_Father: {fileID: 0}
  m_RootOrder: 0
  m_LocalEulerAnglesHint: {x: 0, y: 0, z: 0}
--- !u!1001 &2720345354828858671
PrefabInstance:
  m_ObjectHideFlags: 0
  serializedVersion: 2
  m_Modification:
    m_TransformParent: {fileID: 6020141455540820404}
    m_Modifications:
    - target: {fileID: -8679921383154817045, guid: 4a219a25c23606e4ba3592d9c092b5eb,
        type: 3}
      propertyPath: m_RootOrder
      value: 0
      objectReference: {fileID: 0}
    - target: {fileID: -8679921383154817045, guid: 4a219a25c23606e4ba3592d9c092b5eb,
        type: 3}
      propertyPath: m_LocalScale.x
      value: 0.050000004
      objectReference: {fileID: 0}
    - target: {fileID: -8679921383154817045, guid: 4a219a25c23606e4ba3592d9c092b5eb,
        type: 3}
      propertyPath: m_LocalScale.y
      value: 0.05
      objectReference: {fileID: 0}
    - target: {fileID: -8679921383154817045, guid: 4a219a25c23606e4ba3592d9c092b5eb,
        type: 3}
      propertyPath: m_LocalScale.z
      value: 0.050000004
      objectReference: {fileID: 0}
    - target: {fileID: -8679921383154817045, guid: 4a219a25c23606e4ba3592d9c092b5eb,
        type: 3}
      propertyPath: m_LocalPosition.x
      value: 0
      objectReference: {fileID: 0}
    - target: {fileID: -8679921383154817045, guid: 4a219a25c23606e4ba3592d9c092b5eb,
        type: 3}
      propertyPath: m_LocalPosition.y
      value: 0
      objectReference: {fileID: 0}
    - target: {fileID: -8679921383154817045, guid: 4a219a25c23606e4ba3592d9c092b5eb,
        type: 3}
      propertyPath: m_LocalPosition.z
      value: 0
      objectReference: {fileID: 0}
    - target: {fileID: -8679921383154817045, guid: 4a219a25c23606e4ba3592d9c092b5eb,
        type: 3}
      propertyPath: m_LocalRotation.w
      value: 0.7071068
      objectReference: {fileID: 0}
    - target: {fileID: -8679921383154817045, guid: 4a219a25c23606e4ba3592d9c092b5eb,
        type: 3}
      propertyPath: m_LocalRotation.x
      value: -0
      objectReference: {fileID: 0}
    - target: {fileID: -8679921383154817045, guid: 4a219a25c23606e4ba3592d9c092b5eb,
        type: 3}
      propertyPath: m_LocalRotation.y
      value: 0.7071068
      objectReference: {fileID: 0}
    - target: {fileID: -8679921383154817045, guid: 4a219a25c23606e4ba3592d9c092b5eb,
        type: 3}
      propertyPath: m_LocalRotation.z
      value: -0
      objectReference: {fileID: 0}
    - target: {fileID: -8679921383154817045, guid: 4a219a25c23606e4ba3592d9c092b5eb,
        type: 3}
      propertyPath: m_LocalEulerAnglesHint.x
      value: 0
      objectReference: {fileID: 0}
    - target: {fileID: -8679921383154817045, guid: 4a219a25c23606e4ba3592d9c092b5eb,
        type: 3}
      propertyPath: m_LocalEulerAnglesHint.y
      value: 90
      objectReference: {fileID: 0}
    - target: {fileID: -8679921383154817045, guid: 4a219a25c23606e4ba3592d9c092b5eb,
        type: 3}
      propertyPath: m_LocalEulerAnglesHint.z
      value: 0
      objectReference: {fileID: 0}
    - target: {fileID: -2183040362243568990, guid: 4a219a25c23606e4ba3592d9c092b5eb,
        type: 3}
      propertyPath: m_Materials.Array.data[0]
      value: 
      objectReference: {fileID: 2100000, guid: a20644cbc0710f0499ce150790d1d04a, type: 2}
    - target: {fileID: 919132149155446097, guid: 4a219a25c23606e4ba3592d9c092b5eb,
        type: 3}
      propertyPath: m_Name
      value: houseSmall
      objectReference: {fileID: 0}
    m_RemovedComponents: []
  m_SourcePrefab: {fileID: 100100000, guid: 4a219a25c23606e4ba3592d9c092b5eb, type: 3}
--- !u!4 &2470825633358815940 stripped
Transform:
  m_CorrespondingSourceObject: {fileID: -8679921383154817045, guid: 4a219a25c23606e4ba3592d9c092b5eb,
    type: 3}
  m_PrefabInstance: {fileID: 2720345354828858671}
  m_PrefabAsset: {fileID: 0}
