%YAML 1.1
%TAG !u! tag:unity3d.com,2011:
--- !u!114 &11400000
MonoBehaviour:
  m_ObjectHideFlags: 0
  m_CorrespondingSourceObject: {fileID: 0}
  m_PrefabInstance: {fileID: 0}
  m_PrefabAsset: {fileID: 0}
  m_GameObject: {fileID: 0}
  m_Enabled: 1
  m_EditorHideFlags: 0
  m_Script: {fileID: 11500000, guid: e6fb986f9900443397e8cf9c85be5d54, type: 3}
  m_Name: SignsNoPole
  m_EditorClassIdentifier: 
  prefabs:
  - {fileID: 1706081165147406342, guid: b5a66b02151828444aacbf74b495b7e7, type: 3}
  - {fileID: 1814081441563910163, guid: d0156b86a3037b94c9ad738139ae2594, type: 3}
  - {fileID: 7289077198775024329, guid: 3c896a93c85708d4e99ac9b4aafc1573, type: 3}
  - {fileID: 2371836553013479192, guid: 48f1f36ae7d10584a8009dd7ae921a8b, type: 3}
  - {fileID: 2310355904342886177, guid: 9f5b8e4128ef7be41b8f87fed83151ac, type: 3}
  - {fileID: 7885497694702806141, guid: 6c3069161ccec3c4ba14e29e692af0bb, type: 3}
  - {fileID: 2724883619806763275, guid: 82fcf9614e80ea540ba13266fce9e4fa, type: 3}
  - {fileID: 6166574620586916939, guid: 85b2dd619a512ef4fa20df592c90273f, type: 3}
  - {fileID: 4165941600023790579, guid: 8a5d5db1166669b4085135c87f916106, type: 3}
  - {fileID: 1264175241683966727, guid: 36a463fdcfec73c4b89e7ec07ca63fc3, type: 3}
  - {fileID: 1394070640123505237, guid: 3742ae4cb4b4e3d47bd3b60c57adc326, type: 3}
  - {fileID: 9143370895601000968, guid: 89ee4d9f99c22fe46a3e08b7be69d9ea, type: 3}
  - {fileID: 5287632126410899097, guid: 01875e6316a168047b3e8f15098490c2, type: 3}
  - {fileID: 8779389043722731897, guid: babd9447e87c3e9469cf639666c37d5d, type: 3}
  - {fileID: 3552901554136779798, guid: a1c11bd5f8d98ec4f9cb39dd0e50816f, type: 3}
  - {fileID: 8493234692263079772, guid: 9cc7df0a9adb1bf4fa2ca632f41249c9, type: 3}
  - {fileID: 8526767705633538444, guid: 1fa709d635fc628418f3147bf27f0f27, type: 3}
  - {fileID: 4425331232242761273, guid: f3574291e95b5a7469dccc2eae1bcb6e, type: 3}
