%YAML 1.1
%TAG !u! tag:unity3d.com,2011:
--- !u!1 &3699263976606885273
GameObject:
  m_ObjectHideFlags: 0
  m_CorrespondingSourceObject: {fileID: 0}
  m_PrefabInstance: {fileID: 0}
  m_PrefabAsset: {fileID: 0}
  serializedVersion: 6
  m_Component:
  - component: {fileID: 3699263976606885272}
  m_Layer: 0
  m_Name: BusStop
  m_TagString: Untagged
  m_Icon: {fileID: 0}
  m_NavMeshLayer: 0
  m_StaticEditorFlags: 0
  m_IsActive: 1
--- !u!4 &3699263976606885272
Transform:
  m_ObjectHideFlags: 0
  m_CorrespondingSourceObject: {fileID: 0}
  m_PrefabInstance: {fileID: 0}
  m_PrefabAsset: {fileID: 0}
  m_GameObject: {fileID: 3699263976606885273}
  m_LocalRotation: {x: 0, y: 0, z: 0, w: 1}
  m_LocalPosition: {x: 0, y: 0, z: 0}
  m_LocalScale: {x: 1, y: 1, z: 1}
  m_ConstrainProportionsScale: 0
  m_Children:
  - {fileID: 8515418706148474775}
  m_Father: {fileID: 0}
  m_RootOrder: 0
  m_LocalEulerAnglesHint: {x: 0, y: 0, z: 0}
--- !u!1001 &3699263977078625421
PrefabInstance:
  m_ObjectHideFlags: 0
  serializedVersion: 2
  m_Modification:
    m_TransformParent: {fileID: 3699263976606885272}
    m_Modifications:
    - target: {fileID: -4216859302048453862, guid: 60646fdd31db3ea40b38c767eabe14d7,
        type: 3}
      propertyPath: m_RootOrder
      value: 0
      objectReference: {fileID: 0}
    - target: {fileID: -4216859302048453862, guid: 60646fdd31db3ea40b38c767eabe14d7,
        type: 3}
      propertyPath: m_LocalScale.x
      value: 500
      objectReference: {fileID: 0}
    - target: {fileID: -4216859302048453862, guid: 60646fdd31db3ea40b38c767eabe14d7,
        type: 3}
      propertyPath: m_LocalScale.y
      value: 500
      objectReference: {fileID: 0}
    - target: {fileID: -4216859302048453862, guid: 60646fdd31db3ea40b38c767eabe14d7,
        type: 3}
      propertyPath: m_LocalScale.z
      value: 500
      objectReference: {fileID: 0}
    - target: {fileID: -4216859302048453862, guid: 60646fdd31db3ea40b38c767eabe14d7,
        type: 3}
      propertyPath: m_LocalPosition.x
      value: 0
      objectReference: {fileID: 0}
    - target: {fileID: -4216859302048453862, guid: 60646fdd31db3ea40b38c767eabe14d7,
        type: 3}
      propertyPath: m_LocalPosition.y
      value: 2.87
      objectReference: {fileID: 0}
    - target: {fileID: -4216859302048453862, guid: 60646fdd31db3ea40b38c767eabe14d7,
        type: 3}
      propertyPath: m_LocalPosition.z
      value: 0
      objectReference: {fileID: 0}
    - target: {fileID: -4216859302048453862, guid: 60646fdd31db3ea40b38c767eabe14d7,
        type: 3}
      propertyPath: m_LocalRotation.w
      value: 0.7071068
      objectReference: {fileID: 0}
    - target: {fileID: -4216859302048453862, guid: 60646fdd31db3ea40b38c767eabe14d7,
        type: 3}
      propertyPath: m_LocalRotation.x
      value: -0
      objectReference: {fileID: 0}
    - target: {fileID: -4216859302048453862, guid: 60646fdd31db3ea40b38c767eabe14d7,
        type: 3}
      propertyPath: m_LocalRotation.y
      value: -0.7071068
      objectReference: {fileID: 0}
    - target: {fileID: -4216859302048453862, guid: 60646fdd31db3ea40b38c767eabe14d7,
        type: 3}
      propertyPath: m_LocalRotation.z
      value: -0
      objectReference: {fileID: 0}
    - target: {fileID: -4216859302048453862, guid: 60646fdd31db3ea40b38c767eabe14d7,
        type: 3}
      propertyPath: m_LocalEulerAnglesHint.x
      value: 0
      objectReference: {fileID: 0}
    - target: {fileID: -4216859302048453862, guid: 60646fdd31db3ea40b38c767eabe14d7,
        type: 3}
      propertyPath: m_LocalEulerAnglesHint.y
      value: -90
      objectReference: {fileID: 0}
    - target: {fileID: -4216859302048453862, guid: 60646fdd31db3ea40b38c767eabe14d7,
        type: 3}
      propertyPath: m_LocalEulerAnglesHint.z
      value: 0
      objectReference: {fileID: 0}
    - target: {fileID: -927199367670048503, guid: 60646fdd31db3ea40b38c767eabe14d7,
        type: 3}
      propertyPath: m_Name
      value: Busstop
      objectReference: {fileID: 0}
    - target: {fileID: -927199367670048503, guid: 60646fdd31db3ea40b38c767eabe14d7,
        type: 3}
      propertyPath: m_IsActive
      value: 1
      objectReference: {fileID: 0}
    m_RemovedComponents: []
  m_SourcePrefab: {fileID: 100100000, guid: 60646fdd31db3ea40b38c767eabe14d7, type: 3}
--- !u!4 &8515418706148474775 stripped
Transform:
  m_CorrespondingSourceObject: {fileID: -4216859302048453862, guid: 60646fdd31db3ea40b38c767eabe14d7,
    type: 3}
  m_PrefabInstance: {fileID: 3699263977078625421}
  m_PrefabAsset: {fileID: 0}
