%YAML 1.1
%TAG !u! tag:unity3d.com,2011:
--- !u!1 &4674535900442112556
GameObject:
  m_ObjectHideFlags: 0
  m_CorrespondingSourceObject: {fileID: 0}
  m_PrefabInstance: {fileID: 0}
  m_PrefabAsset: {fileID: 0}
  serializedVersion: 6
  m_Component:
  - component: {fileID: 172862726582837630}
  m_Layer: 0
  m_Name: Lamp2
  m_TagString: Untagged
  m_Icon: {fileID: 0}
  m_NavMeshLayer: 0
  m_StaticEditorFlags: 0
  m_IsActive: 1
--- !u!4 &172862726582837630
Transform:
  m_ObjectHideFlags: 0
  m_CorrespondingSourceObject: {fileID: 0}
  m_PrefabInstance: {fileID: 0}
  m_PrefabAsset: {fileID: 0}
  m_GameObject: {fileID: 4674535900442112556}
  m_LocalRotation: {x: 0, y: 0, z: 0, w: 1}
  m_LocalPosition: {x: 0, y: 0, z: 0}
  m_LocalScale: {x: 1, y: 1, z: 1}
  m_ConstrainProportionsScale: 0
  m_Children:
  - {fileID: 5665310453025409443}
  m_Father: {fileID: 0}
  m_RootOrder: 0
  m_LocalEulerAnglesHint: {x: 0, y: 0, z: 0}
--- !u!1001 &857246445944349369
PrefabInstance:
  m_ObjectHideFlags: 0
  serializedVersion: 2
  m_Modification:
    m_TransformParent: {fileID: 172862726582837630}
    m_Modifications:
    - target: {fileID: -4216859302048453862, guid: 316dc47c31818a84392246d631858c82,
        type: 3}
      propertyPath: m_RootOrder
      value: 0
      objectReference: {fileID: 0}
    - target: {fileID: -4216859302048453862, guid: 316dc47c31818a84392246d631858c82,
        type: 3}
      propertyPath: m_LocalScale.x
      value: 300
      objectReference: {fileID: 0}
    - target: {fileID: -4216859302048453862, guid: 316dc47c31818a84392246d631858c82,
        type: 3}
      propertyPath: m_LocalScale.y
      value: 300
      objectReference: {fileID: 0}
    - target: {fileID: -4216859302048453862, guid: 316dc47c31818a84392246d631858c82,
        type: 3}
      propertyPath: m_LocalScale.z
      value: 300
      objectReference: {fileID: 0}
    - target: {fileID: -4216859302048453862, guid: 316dc47c31818a84392246d631858c82,
        type: 3}
      propertyPath: m_LocalPosition.x
      value: -0.62
      objectReference: {fileID: 0}
    - target: {fileID: -4216859302048453862, guid: 316dc47c31818a84392246d631858c82,
        type: 3}
      propertyPath: m_LocalPosition.y
      value: 7.83
      objectReference: {fileID: 0}
    - target: {fileID: -4216859302048453862, guid: 316dc47c31818a84392246d631858c82,
        type: 3}
      propertyPath: m_LocalPosition.z
      value: 0
      objectReference: {fileID: 0}
    - target: {fileID: -4216859302048453862, guid: 316dc47c31818a84392246d631858c82,
        type: 3}
      propertyPath: m_LocalRotation.w
      value: 1
      objectReference: {fileID: 0}
    - target: {fileID: -4216859302048453862, guid: 316dc47c31818a84392246d631858c82,
        type: 3}
      propertyPath: m_LocalRotation.x
      value: 0.000001809995
      objectReference: {fileID: 0}
    - target: {fileID: -4216859302048453862, guid: 316dc47c31818a84392246d631858c82,
        type: 3}
      propertyPath: m_LocalRotation.y
      value: -0
      objectReference: {fileID: 0}
    - target: {fileID: -4216859302048453862, guid: 316dc47c31818a84392246d631858c82,
        type: 3}
      propertyPath: m_LocalRotation.z
      value: -0
      objectReference: {fileID: 0}
    - target: {fileID: -4216859302048453862, guid: 316dc47c31818a84392246d631858c82,
        type: 3}
      propertyPath: m_LocalEulerAnglesHint.x
      value: 0
      objectReference: {fileID: 0}
    - target: {fileID: -4216859302048453862, guid: 316dc47c31818a84392246d631858c82,
        type: 3}
      propertyPath: m_LocalEulerAnglesHint.y
      value: 0
      objectReference: {fileID: 0}
    - target: {fileID: -4216859302048453862, guid: 316dc47c31818a84392246d631858c82,
        type: 3}
      propertyPath: m_LocalEulerAnglesHint.z
      value: 0
      objectReference: {fileID: 0}
    - target: {fileID: -927199367670048503, guid: 316dc47c31818a84392246d631858c82,
        type: 3}
      propertyPath: m_Name
      value: Light Double
      objectReference: {fileID: 0}
    - target: {fileID: -927199367670048503, guid: 316dc47c31818a84392246d631858c82,
        type: 3}
      propertyPath: m_IsActive
      value: 1
      objectReference: {fileID: 0}
    m_RemovedComponents: []
  m_SourcePrefab: {fileID: 100100000, guid: 316dc47c31818a84392246d631858c82, type: 3}
--- !u!4 &5665310453025409443 stripped
Transform:
  m_CorrespondingSourceObject: {fileID: -4216859302048453862, guid: 316dc47c31818a84392246d631858c82,
    type: 3}
  m_PrefabInstance: {fileID: 857246445944349369}
  m_PrefabAsset: {fileID: 0}
