%YAML 1.1
%TAG !u! tag:unity3d.com,2011:
--- !u!1 &3402577870042505832
GameObject:
  m_ObjectHideFlags: 0
  m_CorrespondingSourceObject: {fileID: 0}
  m_PrefabInstance: {fileID: 0}
  m_PrefabAsset: {fileID: 0}
  serializedVersion: 6
  m_Component:
  - component: {fileID: 2036816775434623688}
  m_Layer: 0
  m_Name: MailBox
  m_TagString: Untagged
  m_Icon: {fileID: 0}
  m_NavMeshLayer: 0
  m_StaticEditorFlags: 0
  m_IsActive: 1
--- !u!4 &2036816775434623688
Transform:
  m_ObjectHideFlags: 0
  m_CorrespondingSourceObject: {fileID: 0}
  m_PrefabInstance: {fileID: 0}
  m_PrefabAsset: {fileID: 0}
  m_GameObject: {fileID: 3402577870042505832}
  m_LocalRotation: {x: 0, y: 0, z: 0, w: 1}
  m_LocalPosition: {x: 0, y: 0, z: 0}
  m_LocalScale: {x: 1, y: 1, z: 1}
  m_ConstrainProportionsScale: 0
  m_Children:
  - {fileID: 6092233438334189581}
  m_Father: {fileID: 0}
  m_RootOrder: 0
  m_LocalEulerAnglesHint: {x: 0, y: 0, z: 0}
--- !u!1001 &5981149147310843878
PrefabInstance:
  m_ObjectHideFlags: 0
  serializedVersion: 2
  m_Modification:
    m_TransformParent: {fileID: 2036816775434623688}
    m_Modifications:
    - target: {fileID: -8679921383154817045, guid: 9a483733fc608904588e7565a674621b,
        type: 3}
      propertyPath: m_RootOrder
      value: 0
      objectReference: {fileID: 0}
    - target: {fileID: -8679921383154817045, guid: 9a483733fc608904588e7565a674621b,
        type: 3}
      propertyPath: m_LocalScale.x
      value: 0.019999998
      objectReference: {fileID: 0}
    - target: {fileID: -8679921383154817045, guid: 9a483733fc608904588e7565a674621b,
        type: 3}
      propertyPath: m_LocalScale.y
      value: 0.02
      objectReference: {fileID: 0}
    - target: {fileID: -8679921383154817045, guid: 9a483733fc608904588e7565a674621b,
        type: 3}
      propertyPath: m_LocalScale.z
      value: 0.019999998
      objectReference: {fileID: 0}
    - target: {fileID: -8679921383154817045, guid: 9a483733fc608904588e7565a674621b,
        type: 3}
      propertyPath: m_LocalPosition.x
      value: 0
      objectReference: {fileID: 0}
    - target: {fileID: -8679921383154817045, guid: 9a483733fc608904588e7565a674621b,
        type: 3}
      propertyPath: m_LocalPosition.y
      value: 0
      objectReference: {fileID: 0}
    - target: {fileID: -8679921383154817045, guid: 9a483733fc608904588e7565a674621b,
        type: 3}
      propertyPath: m_LocalPosition.z
      value: 0
      objectReference: {fileID: 0}
    - target: {fileID: -8679921383154817045, guid: 9a483733fc608904588e7565a674621b,
        type: 3}
      propertyPath: m_LocalRotation.w
      value: 0.7071068
      objectReference: {fileID: 0}
    - target: {fileID: -8679921383154817045, guid: 9a483733fc608904588e7565a674621b,
        type: 3}
      propertyPath: m_LocalRotation.x
      value: -0
      objectReference: {fileID: 0}
    - target: {fileID: -8679921383154817045, guid: 9a483733fc608904588e7565a674621b,
        type: 3}
      propertyPath: m_LocalRotation.y
      value: 0.7071068
      objectReference: {fileID: 0}
    - target: {fileID: -8679921383154817045, guid: 9a483733fc608904588e7565a674621b,
        type: 3}
      propertyPath: m_LocalRotation.z
      value: -0
      objectReference: {fileID: 0}
    - target: {fileID: -8679921383154817045, guid: 9a483733fc608904588e7565a674621b,
        type: 3}
      propertyPath: m_LocalEulerAnglesHint.x
      value: 0
      objectReference: {fileID: 0}
    - target: {fileID: -8679921383154817045, guid: 9a483733fc608904588e7565a674621b,
        type: 3}
      propertyPath: m_LocalEulerAnglesHint.y
      value: 90
      objectReference: {fileID: 0}
    - target: {fileID: -8679921383154817045, guid: 9a483733fc608904588e7565a674621b,
        type: 3}
      propertyPath: m_LocalEulerAnglesHint.z
      value: 0
      objectReference: {fileID: 0}
    - target: {fileID: -2183040362243568990, guid: 9a483733fc608904588e7565a674621b,
        type: 3}
      propertyPath: m_Materials.Array.data[0]
      value: 
      objectReference: {fileID: 2100000, guid: 6cfccdeda27614040a81c56a731775a4, type: 2}
    - target: {fileID: 919132149155446097, guid: 9a483733fc608904588e7565a674621b,
        type: 3}
      propertyPath: m_Name
      value: mailBox
      objectReference: {fileID: 0}
    m_RemovedComponents: []
  m_SourcePrefab: {fileID: 100100000, guid: 9a483733fc608904588e7565a674621b, type: 3}
--- !u!4 &6092233438334189581 stripped
Transform:
  m_CorrespondingSourceObject: {fileID: -8679921383154817045, guid: 9a483733fc608904588e7565a674621b,
    type: 3}
  m_PrefabInstance: {fileID: 5981149147310843878}
  m_PrefabAsset: {fileID: 0}
