%YAML 1.1
%TAG !u! tag:unity3d.com,2011:
--- !u!1 &3795806117142006757
GameObject:
  m_ObjectHideFlags: 0
  m_CorrespondingSourceObject: {fileID: 0}
  m_PrefabInstance: {fileID: 0}
  m_PrefabAsset: {fileID: 0}
  serializedVersion: 6
  m_Component:
  - component: {fileID: 4554724991716864356}
  m_Layer: 0
  m_Name: NewspaperStand
  m_TagString: Untagged
  m_Icon: {fileID: 0}
  m_NavMeshLayer: 0
  m_StaticEditorFlags: 0
  m_IsActive: 1
--- !u!4 &4554724991716864356
Transform:
  m_ObjectHideFlags: 0
  m_CorrespondingSourceObject: {fileID: 0}
  m_PrefabInstance: {fileID: 0}
  m_PrefabAsset: {fileID: 0}
  m_GameObject: {fileID: 3795806117142006757}
  m_LocalRotation: {x: 0, y: 0, z: 0, w: 1}
  m_LocalPosition: {x: 0, y: 0, z: 0}
  m_LocalScale: {x: 1, y: 1, z: 1}
  m_ConstrainProportionsScale: 0
  m_Children:
  - {fileID: 2190815728659989070}
  m_Father: {fileID: 0}
  m_RootOrder: 0
  m_LocalEulerAnglesHint: {x: 0, y: 0, z: 0}
--- !u!1001 &1868411315817768357
PrefabInstance:
  m_ObjectHideFlags: 0
  serializedVersion: 2
  m_Modification:
    m_TransformParent: {fileID: 4554724991716864356}
    m_Modifications:
    - target: {fileID: -8679921383154817045, guid: 149ef202e6865454bba18b3e232e754a,
        type: 3}
      propertyPath: m_RootOrder
      value: 0
      objectReference: {fileID: 0}
    - target: {fileID: -8679921383154817045, guid: 149ef202e6865454bba18b3e232e754a,
        type: 3}
      propertyPath: m_LocalScale.x
      value: 0.019999998
      objectReference: {fileID: 0}
    - target: {fileID: -8679921383154817045, guid: 149ef202e6865454bba18b3e232e754a,
        type: 3}
      propertyPath: m_LocalScale.y
      value: 0.02
      objectReference: {fileID: 0}
    - target: {fileID: -8679921383154817045, guid: 149ef202e6865454bba18b3e232e754a,
        type: 3}
      propertyPath: m_LocalScale.z
      value: 0.019999998
      objectReference: {fileID: 0}
    - target: {fileID: -8679921383154817045, guid: 149ef202e6865454bba18b3e232e754a,
        type: 3}
      propertyPath: m_LocalPosition.x
      value: 0
      objectReference: {fileID: 0}
    - target: {fileID: -8679921383154817045, guid: 149ef202e6865454bba18b3e232e754a,
        type: 3}
      propertyPath: m_LocalPosition.y
      value: 0
      objectReference: {fileID: 0}
    - target: {fileID: -8679921383154817045, guid: 149ef202e6865454bba18b3e232e754a,
        type: 3}
      propertyPath: m_LocalPosition.z
      value: 0
      objectReference: {fileID: 0}
    - target: {fileID: -8679921383154817045, guid: 149ef202e6865454bba18b3e232e754a,
        type: 3}
      propertyPath: m_LocalRotation.w
      value: 0.7071068
      objectReference: {fileID: 0}
    - target: {fileID: -8679921383154817045, guid: 149ef202e6865454bba18b3e232e754a,
        type: 3}
      propertyPath: m_LocalRotation.x
      value: -0
      objectReference: {fileID: 0}
    - target: {fileID: -8679921383154817045, guid: 149ef202e6865454bba18b3e232e754a,
        type: 3}
      propertyPath: m_LocalRotation.y
      value: -0.7071068
      objectReference: {fileID: 0}
    - target: {fileID: -8679921383154817045, guid: 149ef202e6865454bba18b3e232e754a,
        type: 3}
      propertyPath: m_LocalRotation.z
      value: -0
      objectReference: {fileID: 0}
    - target: {fileID: -8679921383154817045, guid: 149ef202e6865454bba18b3e232e754a,
        type: 3}
      propertyPath: m_LocalEulerAnglesHint.x
      value: 0
      objectReference: {fileID: 0}
    - target: {fileID: -8679921383154817045, guid: 149ef202e6865454bba18b3e232e754a,
        type: 3}
      propertyPath: m_LocalEulerAnglesHint.y
      value: -90
      objectReference: {fileID: 0}
    - target: {fileID: -8679921383154817045, guid: 149ef202e6865454bba18b3e232e754a,
        type: 3}
      propertyPath: m_LocalEulerAnglesHint.z
      value: 0
      objectReference: {fileID: 0}
    - target: {fileID: -2183040362243568990, guid: 149ef202e6865454bba18b3e232e754a,
        type: 3}
      propertyPath: m_Materials.Array.data[0]
      value: 
      objectReference: {fileID: 2100000, guid: 1204540603ba8b14b80243b45cda55dd, type: 2}
    - target: {fileID: 919132149155446097, guid: 149ef202e6865454bba18b3e232e754a,
        type: 3}
      propertyPath: m_Name
      value: newsPaperStand
      objectReference: {fileID: 0}
    m_RemovedComponents: []
  m_SourcePrefab: {fileID: 100100000, guid: 149ef202e6865454bba18b3e232e754a, type: 3}
--- !u!4 &2190815728659989070 stripped
Transform:
  m_CorrespondingSourceObject: {fileID: -8679921383154817045, guid: 149ef202e6865454bba18b3e232e754a,
    type: 3}
  m_PrefabInstance: {fileID: 1868411315817768357}
  m_PrefabAsset: {fileID: 0}
