%YAML 1.1
%TAG !u! tag:unity3d.com,2011:
--- !u!114 &11400000
MonoBehaviour:
  m_ObjectHideFlags: 0
  m_CorrespondingSourceObject: {fileID: 0}
  m_PrefabInstance: {fileID: 0}
  m_PrefabAsset: {fileID: 0}
  m_GameObject: {fileID: 0}
  m_Enabled: 1
  m_EditorHideFlags: 0
  m_Script: {fileID: 11500000, guid: c9a7b938d1b54cf58b73918e809f2a41, type: 3}
  m_Name: DefaultWheelFront
  m_EditorClassIdentifier: 
  mass: 100
  radius: 0.46
  maxForce: 8000
  maxLength: 0.2
  bumpForce: 2500
  reboundForce: 6000
  forwardForceCoefficient: 1.15
  forwardSlipCoefficient: 1.1
  sidewaysForceCoefficient: 1.45
  sidewaysSlipCoefficient: 1.1
  frictionCircleStrength: 0
  frictionCircleShape: 1.5
