%YAML 1.1
%TAG !u! tag:unity3d.com,2011:
--- !u!114 &11400000
MonoBehaviour:
  m_ObjectHideFlags: 0
  m_CorrespondingSourceObject: {fileID: 0}
  m_PrefabInstance: {fileID: 0}
  m_PrefabAsset: {fileID: 0}
  m_GameObject: {fileID: 0}
  m_Enabled: 1
  m_EditorHideFlags: 0
  m_Script: {fileID: 11500000, guid: f97defda6122489aa3995cc7dccbe2f9, type: 3}
  m_Name: EngineStandartCarNpc
  m_EditorClassIdentifier: 
  minRpm: 300
  maxRpm: 1500
  maxSpeedForward: 60
  maxSpeedReverse: 50
  reverseTorque: 2000
  maxTorque: 5000
  torqueCurve:
    serializedVersion: 2
    m_Curve:
    - serializedVersion: 3
      time: 0
      value: 0.9
      inSlope: 0.72115356
      outSlope: 0.72115356
      tangentMode: 0
      weightedMode: 0
      inWeight: 0
      outWeight: 0.23440917
    - serializedVersion: 3
      time: 0.22
      value: 1
      inSlope: 0.28764984
      outSlope: 0.28764984
      tangentMode: 0
      weightedMode: 0
      inWeight: 0.1680594
      outWeight: 0.33333334
    - serializedVersion: 3
      time: 0.5
      value: 0.55
      inSlope: -0.68560517
      outSlope: -0.68560517
      tangentMode: 0
      weightedMode: 0
      inWeight: 0.05992349
      outWeight: 0
    - serializedVersion: 3
      time: 1
      value: 0.44
      inSlope: 0
      outSlope: 0
      tangentMode: 0
      weightedMode: 0
      inWeight: 0
      outWeight: 0
    m_PreInfinity: 2
    m_PostInfinity: 2
    m_RotationOrder: 4
  torqueToRpmCurve:
    serializedVersion: 2
    m_Curve: []
    m_PreInfinity: 2
    m_PostInfinity: 2
    m_RotationOrder: 4
  brakePower: 8000
  handbrakePower: 12000
