%YAML 1.1
%TAG !u! tag:unity3d.com,2011:
--- !u!29 &1
OcclusionCullingSettings:
  m_ObjectHideFlags: 0
  serializedVersion: 2
  m_OcclusionBakeSettings:
    smallestOccluder: 5
    smallestHole: 0.25
    backfaceThreshold: 100
  m_SceneGUID: 00000000000000000000000000000000
  m_OcclusionCullingData: {fileID: 0}
--- !u!104 &2
RenderSettings:
  m_ObjectHideFlags: 0
  serializedVersion: 9
  m_Fog: 0
  m_FogColor: {r: 0.5, g: 0.5, b: 0.5, a: 1}
  m_FogMode: 3
  m_FogDensity: 0.01
  m_LinearFogStart: 0
  m_LinearFogEnd: 300
  m_AmbientSkyColor: {r: 0.212, g: 0.227, b: 0.259, a: 1}
  m_AmbientEquatorColor: {r: 0.114, g: 0.125, b: 0.133, a: 1}
  m_AmbientGroundColor: {r: 0.047, g: 0.043, b: 0.035, a: 1}
  m_AmbientIntensity: 1
  m_AmbientMode: 0
  m_SubtractiveShadowColor: {r: 0.42, g: 0.478, b: 0.627, a: 1}
  m_SkyboxMaterial: {fileID: 10304, guid: 0000000000000000f000000000000000, type: 0}
  m_HaloStrength: 0.5
  m_FlareStrength: 1
  m_FlareFadeSpeed: 3
  m_HaloTexture: {fileID: 0}
  m_SpotCookie: {fileID: 10001, guid: 0000000000000000e000000000000000, type: 0}
  m_DefaultReflectionMode: 0
  m_DefaultReflectionResolution: 128
  m_ReflectionBounces: 1
  m_ReflectionIntensity: 1
  m_CustomReflection: {fileID: 0}
  m_Sun: {fileID: 0}
  m_IndirectSpecularColor: {r: 0.18028378, g: 0.22571412, b: 0.30692285, a: 1}
  m_UseRadianceAmbientProbe: 0
--- !u!157 &3
LightmapSettings:
  m_ObjectHideFlags: 0
  serializedVersion: 12
  m_GIWorkflowMode: 1
  m_GISettings:
    serializedVersion: 2
    m_BounceScale: 1
    m_IndirectOutputScale: 1
    m_AlbedoBoost: 1
    m_EnvironmentLightingMode: 0
    m_EnableBakedLightmaps: 1
    m_EnableRealtimeLightmaps: 0
  m_LightmapEditorSettings:
    serializedVersion: 12
    m_Resolution: 2
    m_BakeResolution: 40
    m_AtlasSize: 1024
    m_AO: 0
    m_AOMaxDistance: 1
    m_CompAOExponent: 1
    m_CompAOExponentDirect: 0
    m_ExtractAmbientOcclusion: 0
    m_Padding: 2
    m_LightmapParameters: {fileID: 0}
    m_LightmapsBakeMode: 1
    m_TextureCompression: 1
    m_FinalGather: 0
    m_FinalGatherFiltering: 1
    m_FinalGatherRayCount: 256
    m_ReflectionCompression: 2
    m_MixedBakeMode: 2
    m_BakeBackend: 1
    m_PVRSampling: 1
    m_PVRDirectSampleCount: 32
    m_PVRSampleCount: 512
    m_PVRBounces: 2
    m_PVREnvironmentSampleCount: 256
    m_PVREnvironmentReferencePointCount: 2048
    m_PVRFilteringMode: 1
    m_PVRDenoiserTypeDirect: 1
    m_PVRDenoiserTypeIndirect: 1
    m_PVRDenoiserTypeAO: 1
    m_PVRFilterTypeDirect: 0
    m_PVRFilterTypeIndirect: 0
    m_PVRFilterTypeAO: 0
    m_PVREnvironmentMIS: 1
    m_PVRCulling: 1
    m_PVRFilteringGaussRadiusDirect: 1
    m_PVRFilteringGaussRadiusIndirect: 5
    m_PVRFilteringGaussRadiusAO: 2
    m_PVRFilteringAtrousPositionSigmaDirect: 0.5
    m_PVRFilteringAtrousPositionSigmaIndirect: 2
    m_PVRFilteringAtrousPositionSigmaAO: 1
    m_ExportTrainingData: 0
    m_TrainingDataDestination: TrainingData
    m_LightProbeSampleCountMultiplier: 4
  m_LightingDataAsset: {fileID: 0}
  m_LightingSettings: {fileID: 0}
--- !u!196 &4
NavMeshSettings:
  serializedVersion: 2
  m_ObjectHideFlags: 0
  m_BuildSettings:
    serializedVersion: 2
    agentTypeID: 0
    agentRadius: 0.5
    agentHeight: 2
    agentSlope: 45
    agentClimb: 0.4
    ledgeDropHeight: 0
    maxJumpAcrossDistance: 0
    minRegionArea: 2
    manualCellSize: 0
    cellSize: 0.16666667
    manualTileSize: 0
    tileSize: 256
    accuratePlacement: 0
    maxJobWorkers: 0
    preserveTilesOutsideBounds: 0
    debug:
      m_Flags: 0
  m_NavMeshData: {fileID: 0}
--- !u!1001 &88912442
PrefabInstance:
  m_ObjectHideFlags: 0
  serializedVersion: 2
  m_Modification:
    m_TransformParent: {fileID: 0}
    m_Modifications:
    - target: {fileID: 3834094230017856042, guid: 49cfa529ac3d5414e96f77d053e88905,
        type: 3}
      propertyPath: m_RootOrder
      value: 5
      objectReference: {fileID: 0}
    - target: {fileID: 3834094230017856042, guid: 49cfa529ac3d5414e96f77d053e88905,
        type: 3}
      propertyPath: m_LocalPosition.x
      value: 0
      objectReference: {fileID: 0}
    - target: {fileID: 3834094230017856042, guid: 49cfa529ac3d5414e96f77d053e88905,
        type: 3}
      propertyPath: m_LocalPosition.y
      value: 0
      objectReference: {fileID: 0}
    - target: {fileID: 3834094230017856042, guid: 49cfa529ac3d5414e96f77d053e88905,
        type: 3}
      propertyPath: m_LocalPosition.z
      value: 0
      objectReference: {fileID: 0}
    - target: {fileID: 3834094230017856042, guid: 49cfa529ac3d5414e96f77d053e88905,
        type: 3}
      propertyPath: m_LocalRotation.w
      value: 1
      objectReference: {fileID: 0}
    - target: {fileID: 3834094230017856042, guid: 49cfa529ac3d5414e96f77d053e88905,
        type: 3}
      propertyPath: m_LocalRotation.x
      value: 0
      objectReference: {fileID: 0}
    - target: {fileID: 3834094230017856042, guid: 49cfa529ac3d5414e96f77d053e88905,
        type: 3}
      propertyPath: m_LocalRotation.y
      value: 0
      objectReference: {fileID: 0}
    - target: {fileID: 3834094230017856042, guid: 49cfa529ac3d5414e96f77d053e88905,
        type: 3}
      propertyPath: m_LocalRotation.z
      value: 0
      objectReference: {fileID: 0}
    - target: {fileID: 3834094230017856042, guid: 49cfa529ac3d5414e96f77d053e88905,
        type: 3}
      propertyPath: m_LocalEulerAnglesHint.x
      value: 0
      objectReference: {fileID: 0}
    - target: {fileID: 3834094230017856042, guid: 49cfa529ac3d5414e96f77d053e88905,
        type: 3}
      propertyPath: m_LocalEulerAnglesHint.y
      value: 0
      objectReference: {fileID: 0}
    - target: {fileID: 3834094230017856042, guid: 49cfa529ac3d5414e96f77d053e88905,
        type: 3}
      propertyPath: m_LocalEulerAnglesHint.z
      value: 0
      objectReference: {fileID: 0}
    - target: {fileID: 3834094230017856043, guid: 49cfa529ac3d5414e96f77d053e88905,
        type: 3}
      propertyPath: m_Name
      value: 2WayRampBlack
      objectReference: {fileID: 0}
    m_RemovedComponents: []
  m_SourcePrefab: {fileID: 100100000, guid: 49cfa529ac3d5414e96f77d053e88905, type: 3}
--- !u!1001 &174379306
PrefabInstance:
  m_ObjectHideFlags: 0
  serializedVersion: 2
  m_Modification:
    m_TransformParent: {fileID: 0}
    m_Modifications:
    - target: {fileID: 660968449944690709, guid: a2d110c9a39b78c4a856071648291126,
        type: 3}
      propertyPath: m_Name
      value: FreeLookCamera
      objectReference: {fileID: 0}
    - target: {fileID: 3648586072815177269, guid: a2d110c9a39b78c4a856071648291126,
        type: 3}
      propertyPath: m_RootOrder
      value: 1
      objectReference: {fileID: 0}
    - target: {fileID: 3648586072815177269, guid: a2d110c9a39b78c4a856071648291126,
        type: 3}
      propertyPath: m_LocalPosition.x
      value: 0
      objectReference: {fileID: 0}
    - target: {fileID: 3648586072815177269, guid: a2d110c9a39b78c4a856071648291126,
        type: 3}
      propertyPath: m_LocalPosition.y
      value: 4.6
      objectReference: {fileID: 0}
    - target: {fileID: 3648586072815177269, guid: a2d110c9a39b78c4a856071648291126,
        type: 3}
      propertyPath: m_LocalPosition.z
      value: -12.19
      objectReference: {fileID: 0}
    - target: {fileID: 3648586072815177269, guid: a2d110c9a39b78c4a856071648291126,
        type: 3}
      propertyPath: m_LocalRotation.w
      value: 1
      objectReference: {fileID: 0}
    - target: {fileID: 3648586072815177269, guid: a2d110c9a39b78c4a856071648291126,
        type: 3}
      propertyPath: m_LocalRotation.x
      value: 0
      objectReference: {fileID: 0}
    - target: {fileID: 3648586072815177269, guid: a2d110c9a39b78c4a856071648291126,
        type: 3}
      propertyPath: m_LocalRotation.y
      value: 0
      objectReference: {fileID: 0}
    - target: {fileID: 3648586072815177269, guid: a2d110c9a39b78c4a856071648291126,
        type: 3}
      propertyPath: m_LocalRotation.z
      value: 0
      objectReference: {fileID: 0}
    - target: {fileID: 3648586072815177269, guid: a2d110c9a39b78c4a856071648291126,
        type: 3}
      propertyPath: m_LocalEulerAnglesHint.x
      value: 0
      objectReference: {fileID: 0}
    - target: {fileID: 3648586072815177269, guid: a2d110c9a39b78c4a856071648291126,
        type: 3}
      propertyPath: m_LocalEulerAnglesHint.y
      value: 0
      objectReference: {fileID: 0}
    - target: {fileID: 3648586072815177269, guid: a2d110c9a39b78c4a856071648291126,
        type: 3}
      propertyPath: m_LocalEulerAnglesHint.z
      value: 0
      objectReference: {fileID: 0}
    m_RemovedComponents: []
  m_SourcePrefab: {fileID: 100100000, guid: a2d110c9a39b78c4a856071648291126, type: 3}
--- !u!1 &740277269
GameObject:
  m_ObjectHideFlags: 0
  m_CorrespondingSourceObject: {fileID: 0}
  m_PrefabInstance: {fileID: 0}
  m_PrefabAsset: {fileID: 0}
  serializedVersion: 6
  m_Component:
  - component: {fileID: 740277271}
  - component: {fileID: 740277270}
  m_Layer: 0
  m_Name: Global Volume
  m_TagString: Untagged
  m_Icon: {fileID: 0}
  m_NavMeshLayer: 0
  m_StaticEditorFlags: 0
  m_IsActive: 1
--- !u!114 &740277270
MonoBehaviour:
  m_ObjectHideFlags: 0
  m_CorrespondingSourceObject: {fileID: 0}
  m_PrefabInstance: {fileID: 0}
  m_PrefabAsset: {fileID: 0}
  m_GameObject: {fileID: 740277269}
  m_Enabled: 1
  m_EditorHideFlags: 0
  m_Script: {fileID: 11500000, guid: 172515602e62fb746b5d573b38a5fe58, type: 3}
  m_Name: 
  m_EditorClassIdentifier: 
  m_IsGlobal: 1
  priority: 0
  blendDistance: 0
  weight: 1
  sharedProfile: {fileID: 11400000, guid: a6560a915ef98420e9faacc1c7438823, type: 2}
--- !u!4 &740277271
Transform:
  m_ObjectHideFlags: 0
  m_CorrespondingSourceObject: {fileID: 0}
  m_PrefabInstance: {fileID: 0}
  m_PrefabAsset: {fileID: 0}
  m_GameObject: {fileID: 740277269}
  m_LocalRotation: {x: 0, y: 0, z: 0, w: 1}
  m_LocalPosition: {x: 0, y: 0, z: 0}
  m_LocalScale: {x: 1, y: 1, z: 1}
  m_ConstrainProportionsScale: 0
  m_Children: []
  m_Father: {fileID: 0}
  m_RootOrder: 4
  m_LocalEulerAnglesHint: {x: 0, y: 0, z: 0}
--- !u!1001 &759749961
PrefabInstance:
  m_ObjectHideFlags: 0
  serializedVersion: 2
  m_Modification:
    m_TransformParent: {fileID: 0}
    m_Modifications:
    - target: {fileID: 3834094230017856042, guid: 49cfa529ac3d5414e96f77d053e88905,
        type: 3}
      propertyPath: m_RootOrder
      value: 9
      objectReference: {fileID: 0}
    - target: {fileID: 3834094230017856042, guid: 49cfa529ac3d5414e96f77d053e88905,
        type: 3}
      propertyPath: m_LocalPosition.x
      value: 0
      objectReference: {fileID: 0}
    - target: {fileID: 3834094230017856042, guid: 49cfa529ac3d5414e96f77d053e88905,
        type: 3}
      propertyPath: m_LocalPosition.y
      value: 0
      objectReference: {fileID: 0}
    - target: {fileID: 3834094230017856042, guid: 49cfa529ac3d5414e96f77d053e88905,
        type: 3}
      propertyPath: m_LocalPosition.z
      value: 480
      objectReference: {fileID: 0}
    - target: {fileID: 3834094230017856042, guid: 49cfa529ac3d5414e96f77d053e88905,
        type: 3}
      propertyPath: m_LocalRotation.w
      value: 1
      objectReference: {fileID: 0}
    - target: {fileID: 3834094230017856042, guid: 49cfa529ac3d5414e96f77d053e88905,
        type: 3}
      propertyPath: m_LocalRotation.x
      value: 0
      objectReference: {fileID: 0}
    - target: {fileID: 3834094230017856042, guid: 49cfa529ac3d5414e96f77d053e88905,
        type: 3}
      propertyPath: m_LocalRotation.y
      value: 0
      objectReference: {fileID: 0}
    - target: {fileID: 3834094230017856042, guid: 49cfa529ac3d5414e96f77d053e88905,
        type: 3}
      propertyPath: m_LocalRotation.z
      value: 0
      objectReference: {fileID: 0}
    - target: {fileID: 3834094230017856042, guid: 49cfa529ac3d5414e96f77d053e88905,
        type: 3}
      propertyPath: m_LocalEulerAnglesHint.x
      value: 0
      objectReference: {fileID: 0}
    - target: {fileID: 3834094230017856042, guid: 49cfa529ac3d5414e96f77d053e88905,
        type: 3}
      propertyPath: m_LocalEulerAnglesHint.y
      value: 0
      objectReference: {fileID: 0}
    - target: {fileID: 3834094230017856042, guid: 49cfa529ac3d5414e96f77d053e88905,
        type: 3}
      propertyPath: m_LocalEulerAnglesHint.z
      value: 0
      objectReference: {fileID: 0}
    - target: {fileID: 3834094230017856043, guid: 49cfa529ac3d5414e96f77d053e88905,
        type: 3}
      propertyPath: m_Name
      value: 2WayRampBlack (4)
      objectReference: {fileID: 0}
    m_RemovedComponents: []
  m_SourcePrefab: {fileID: 100100000, guid: 49cfa529ac3d5414e96f77d053e88905, type: 3}
--- !u!1001 &918843484
PrefabInstance:
  m_ObjectHideFlags: 0
  serializedVersion: 2
  m_Modification:
    m_TransformParent: {fileID: 0}
    m_Modifications:
    - target: {fileID: 3834094230017856042, guid: 49cfa529ac3d5414e96f77d053e88905,
        type: 3}
      propertyPath: m_RootOrder
      value: 7
      objectReference: {fileID: 0}
    - target: {fileID: 3834094230017856042, guid: 49cfa529ac3d5414e96f77d053e88905,
        type: 3}
      propertyPath: m_LocalPosition.x
      value: 0
      objectReference: {fileID: 0}
    - target: {fileID: 3834094230017856042, guid: 49cfa529ac3d5414e96f77d053e88905,
        type: 3}
      propertyPath: m_LocalPosition.y
      value: 0
      objectReference: {fileID: 0}
    - target: {fileID: 3834094230017856042, guid: 49cfa529ac3d5414e96f77d053e88905,
        type: 3}
      propertyPath: m_LocalPosition.z
      value: 240
      objectReference: {fileID: 0}
    - target: {fileID: 3834094230017856042, guid: 49cfa529ac3d5414e96f77d053e88905,
        type: 3}
      propertyPath: m_LocalRotation.w
      value: 1
      objectReference: {fileID: 0}
    - target: {fileID: 3834094230017856042, guid: 49cfa529ac3d5414e96f77d053e88905,
        type: 3}
      propertyPath: m_LocalRotation.x
      value: 0
      objectReference: {fileID: 0}
    - target: {fileID: 3834094230017856042, guid: 49cfa529ac3d5414e96f77d053e88905,
        type: 3}
      propertyPath: m_LocalRotation.y
      value: 0
      objectReference: {fileID: 0}
    - target: {fileID: 3834094230017856042, guid: 49cfa529ac3d5414e96f77d053e88905,
        type: 3}
      propertyPath: m_LocalRotation.z
      value: 0
      objectReference: {fileID: 0}
    - target: {fileID: 3834094230017856042, guid: 49cfa529ac3d5414e96f77d053e88905,
        type: 3}
      propertyPath: m_LocalEulerAnglesHint.x
      value: 0
      objectReference: {fileID: 0}
    - target: {fileID: 3834094230017856042, guid: 49cfa529ac3d5414e96f77d053e88905,
        type: 3}
      propertyPath: m_LocalEulerAnglesHint.y
      value: 0
      objectReference: {fileID: 0}
    - target: {fileID: 3834094230017856042, guid: 49cfa529ac3d5414e96f77d053e88905,
        type: 3}
      propertyPath: m_LocalEulerAnglesHint.z
      value: 0
      objectReference: {fileID: 0}
    - target: {fileID: 3834094230017856043, guid: 49cfa529ac3d5414e96f77d053e88905,
        type: 3}
      propertyPath: m_Name
      value: 2WayRampBlack (2)
      objectReference: {fileID: 0}
    m_RemovedComponents: []
  m_SourcePrefab: {fileID: 100100000, guid: 49cfa529ac3d5414e96f77d053e88905, type: 3}
--- !u!1001 &919338143
PrefabInstance:
  m_ObjectHideFlags: 0
  serializedVersion: 2
  m_Modification:
    m_TransformParent: {fileID: 0}
    m_Modifications:
    - target: {fileID: 6456696398316772293, guid: 3c4d9454435bc1d40b550d6e1149aa0e,
        type: 3}
      propertyPath: m_Name
      value: Ground
      objectReference: {fileID: 0}
    - target: {fileID: 6456696398316772294, guid: 3c4d9454435bc1d40b550d6e1149aa0e,
        type: 3}
      propertyPath: m_RootOrder
      value: 11
      objectReference: {fileID: 0}
    - target: {fileID: 6456696398316772294, guid: 3c4d9454435bc1d40b550d6e1149aa0e,
        type: 3}
      propertyPath: m_LocalPosition.x
      value: 258
      objectReference: {fileID: 0}
    - target: {fileID: 6456696398316772294, guid: 3c4d9454435bc1d40b550d6e1149aa0e,
        type: 3}
      propertyPath: m_LocalPosition.y
      value: 0
      objectReference: {fileID: 0}
    - target: {fileID: 6456696398316772294, guid: 3c4d9454435bc1d40b550d6e1149aa0e,
        type: 3}
      propertyPath: m_LocalPosition.z
      value: 190
      objectReference: {fileID: 0}
    - target: {fileID: 6456696398316772294, guid: 3c4d9454435bc1d40b550d6e1149aa0e,
        type: 3}
      propertyPath: m_LocalRotation.w
      value: 0
      objectReference: {fileID: 0}
    - target: {fileID: 6456696398316772294, guid: 3c4d9454435bc1d40b550d6e1149aa0e,
        type: 3}
      propertyPath: m_LocalRotation.x
      value: 0
      objectReference: {fileID: 0}
    - target: {fileID: 6456696398316772294, guid: 3c4d9454435bc1d40b550d6e1149aa0e,
        type: 3}
      propertyPath: m_LocalRotation.y
      value: 1
      objectReference: {fileID: 0}
    - target: {fileID: 6456696398316772294, guid: 3c4d9454435bc1d40b550d6e1149aa0e,
        type: 3}
      propertyPath: m_LocalRotation.z
      value: 0
      objectReference: {fileID: 0}
    - target: {fileID: 6456696398316772294, guid: 3c4d9454435bc1d40b550d6e1149aa0e,
        type: 3}
      propertyPath: m_LocalEulerAnglesHint.x
      value: 0
      objectReference: {fileID: 0}
    - target: {fileID: 6456696398316772294, guid: 3c4d9454435bc1d40b550d6e1149aa0e,
        type: 3}
      propertyPath: m_LocalEulerAnglesHint.y
      value: 180
      objectReference: {fileID: 0}
    - target: {fileID: 6456696398316772294, guid: 3c4d9454435bc1d40b550d6e1149aa0e,
        type: 3}
      propertyPath: m_LocalEulerAnglesHint.z
      value: 0
      objectReference: {fileID: 0}
    - target: {fileID: 7640253247843990463, guid: 3c4d9454435bc1d40b550d6e1149aa0e,
        type: 3}
      propertyPath: m_LocalPosition.x
      value: 216.3
      objectReference: {fileID: 0}
    m_RemovedComponents: []
  m_SourcePrefab: {fileID: 100100000, guid: 3c4d9454435bc1d40b550d6e1149aa0e, type: 3}
--- !u!1001 &1087287269
PrefabInstance:
  m_ObjectHideFlags: 0
  serializedVersion: 2
  m_Modification:
    m_TransformParent: {fileID: 0}
    m_Modifications:
    - target: {fileID: 6456696398316772293, guid: 3c4d9454435bc1d40b550d6e1149aa0e,
        type: 3}
      propertyPath: m_Name
      value: Ground (1)
      objectReference: {fileID: 0}
    - target: {fileID: 6456696398316772294, guid: 3c4d9454435bc1d40b550d6e1149aa0e,
        type: 3}
      propertyPath: m_RootOrder
      value: 10
      objectReference: {fileID: 0}
    - target: {fileID: 6456696398316772294, guid: 3c4d9454435bc1d40b550d6e1149aa0e,
        type: 3}
      propertyPath: m_LocalPosition.x
      value: -258
      objectReference: {fileID: 0}
    - target: {fileID: 6456696398316772294, guid: 3c4d9454435bc1d40b550d6e1149aa0e,
        type: 3}
      propertyPath: m_LocalPosition.y
      value: 0
      objectReference: {fileID: 0}
    - target: {fileID: 6456696398316772294, guid: 3c4d9454435bc1d40b550d6e1149aa0e,
        type: 3}
      propertyPath: m_LocalPosition.z
      value: 190
      objectReference: {fileID: 0}
    - target: {fileID: 6456696398316772294, guid: 3c4d9454435bc1d40b550d6e1149aa0e,
        type: 3}
      propertyPath: m_LocalRotation.w
      value: 1
      objectReference: {fileID: 0}
    - target: {fileID: 6456696398316772294, guid: 3c4d9454435bc1d40b550d6e1149aa0e,
        type: 3}
      propertyPath: m_LocalRotation.x
      value: 0
      objectReference: {fileID: 0}
    - target: {fileID: 6456696398316772294, guid: 3c4d9454435bc1d40b550d6e1149aa0e,
        type: 3}
      propertyPath: m_LocalRotation.y
      value: 0
      objectReference: {fileID: 0}
    - target: {fileID: 6456696398316772294, guid: 3c4d9454435bc1d40b550d6e1149aa0e,
        type: 3}
      propertyPath: m_LocalRotation.z
      value: 0
      objectReference: {fileID: 0}
    - target: {fileID: 6456696398316772294, guid: 3c4d9454435bc1d40b550d6e1149aa0e,
        type: 3}
      propertyPath: m_LocalEulerAnglesHint.x
      value: 0
      objectReference: {fileID: 0}
    - target: {fileID: 6456696398316772294, guid: 3c4d9454435bc1d40b550d6e1149aa0e,
        type: 3}
      propertyPath: m_LocalEulerAnglesHint.y
      value: 0
      objectReference: {fileID: 0}
    - target: {fileID: 6456696398316772294, guid: 3c4d9454435bc1d40b550d6e1149aa0e,
        type: 3}
      propertyPath: m_LocalEulerAnglesHint.z
      value: 0
      objectReference: {fileID: 0}
    m_RemovedComponents: []
  m_SourcePrefab: {fileID: 100100000, guid: 3c4d9454435bc1d40b550d6e1149aa0e, type: 3}
--- !u!1 &1541034605
GameObject:
  m_ObjectHideFlags: 0
  m_CorrespondingSourceObject: {fileID: 0}
  m_PrefabInstance: {fileID: 0}
  m_PrefabAsset: {fileID: 0}
  serializedVersion: 6
  m_Component:
  - component: {fileID: 1541034607}
  - component: {fileID: 1541034606}
  m_Layer: 0
  m_Name: MorpehInitializer
  m_TagString: Untagged
  m_Icon: {fileID: 0}
  m_NavMeshLayer: 0
  m_StaticEditorFlags: 0
  m_IsActive: 1
--- !u!114 &1541034606
MonoBehaviour:
  m_ObjectHideFlags: 0
  m_CorrespondingSourceObject: {fileID: 0}
  m_PrefabInstance: {fileID: 0}
  m_PrefabAsset: {fileID: 0}
  m_GameObject: {fileID: 1541034605}
  m_Enabled: 1
  m_EditorHideFlags: 0
  m_Script: {fileID: 11500000, guid: eadc4821791e4ecba5b8c4114904e5ee, type: 3}
  m_Name: 
  m_EditorClassIdentifier: 
  _referencesContainer: {fileID: 11400000, guid: 4c379e6be27f59a48b06645175d68979,
    type: 2}
  _soundContainer: {fileID: 11400000, guid: 79724cec1001ae243be6fe6b4a94575c, type: 2}
--- !u!4 &1541034607
Transform:
  m_ObjectHideFlags: 0
  m_CorrespondingSourceObject: {fileID: 0}
  m_PrefabInstance: {fileID: 0}
  m_PrefabAsset: {fileID: 0}
  m_GameObject: {fileID: 1541034605}
  m_LocalRotation: {x: 0, y: 0, z: 0, w: 1}
  m_LocalPosition: {x: 0, y: 0, z: 0}
  m_LocalScale: {x: 1, y: 1, z: 1}
  m_ConstrainProportionsScale: 0
  m_Children: []
  m_Father: {fileID: 0}
  m_RootOrder: 3
  m_LocalEulerAnglesHint: {x: 0, y: 0, z: 0}
--- !u!1001 &1759323329
PrefabInstance:
  m_ObjectHideFlags: 0
  serializedVersion: 2
  m_Modification:
    m_TransformParent: {fileID: 0}
    m_Modifications:
    - target: {fileID: 3284965220855974849, guid: 0f2d4d63c522cd54ba414e2e674704f1,
        type: 3}
      propertyPath: m_RootOrder
      value: 0
      objectReference: {fileID: 0}
    - target: {fileID: 3284965220855974849, guid: 0f2d4d63c522cd54ba414e2e674704f1,
        type: 3}
      propertyPath: m_LocalPosition.x
      value: 0
      objectReference: {fileID: 0}
    - target: {fileID: 3284965220855974849, guid: 0f2d4d63c522cd54ba414e2e674704f1,
        type: 3}
      propertyPath: m_LocalPosition.y
      value: 4.6
      objectReference: {fileID: 0}
    - target: {fileID: 3284965220855974849, guid: 0f2d4d63c522cd54ba414e2e674704f1,
        type: 3}
      propertyPath: m_LocalPosition.z
      value: -12.19
      objectReference: {fileID: 0}
    - target: {fileID: 3284965220855974849, guid: 0f2d4d63c522cd54ba414e2e674704f1,
        type: 3}
      propertyPath: m_LocalRotation.w
      value: 0.99214894
      objectReference: {fileID: 0}
    - target: {fileID: 3284965220855974849, guid: 0f2d4d63c522cd54ba414e2e674704f1,
        type: 3}
      propertyPath: m_LocalRotation.x
      value: 0.1250619
      objectReference: {fileID: 0}
    - target: {fileID: 3284965220855974849, guid: 0f2d4d63c522cd54ba414e2e674704f1,
        type: 3}
      propertyPath: m_LocalRotation.y
      value: 0.000000017071297
      objectReference: {fileID: 0}
    - target: {fileID: 3284965220855974849, guid: 0f2d4d63c522cd54ba414e2e674704f1,
        type: 3}
      propertyPath: m_LocalRotation.z
      value: -0.0000000021518636
      objectReference: {fileID: 0}
    - target: {fileID: 3284965220855974849, guid: 0f2d4d63c522cd54ba414e2e674704f1,
        type: 3}
      propertyPath: m_LocalEulerAnglesHint.x
      value: 53.304
      objectReference: {fileID: 0}
    - target: {fileID: 3284965220855974849, guid: 0f2d4d63c522cd54ba414e2e674704f1,
        type: 3}
      propertyPath: m_LocalEulerAnglesHint.y
      value: 90
      objectReference: {fileID: 0}
    - target: {fileID: 3284965220855974849, guid: 0f2d4d63c522cd54ba414e2e674704f1,
        type: 3}
      propertyPath: m_LocalEulerAnglesHint.z
      value: 0
      objectReference: {fileID: 0}
    - target: {fileID: 3284965220855974860, guid: 0f2d4d63c522cd54ba414e2e674704f1,
        type: 3}
      propertyPath: m_Name
      value: Main Camera
      objectReference: {fileID: 0}
    m_RemovedComponents: []
  m_SourcePrefab: {fileID: 100100000, guid: 0f2d4d63c522cd54ba414e2e674704f1, type: 3}
--- !u!1 &1852876170
GameObject:
  m_ObjectHideFlags: 0
  m_CorrespondingSourceObject: {fileID: 0}
  m_PrefabInstance: {fileID: 0}
  m_PrefabAsset: {fileID: 0}
  serializedVersion: 6
  m_Component:
  - component: {fileID: 1852876172}
  - component: {fileID: 1852876171}
  - component: {fileID: 1852876173}
  m_Layer: 0
  m_Name: Directional Light
  m_TagString: Untagged
  m_Icon: {fileID: 0}
  m_NavMeshLayer: 0
  m_StaticEditorFlags: 0
  m_IsActive: 1
--- !u!108 &1852876171
Light:
  m_ObjectHideFlags: 0
  m_CorrespondingSourceObject: {fileID: 0}
  m_PrefabInstance: {fileID: 0}
  m_PrefabAsset: {fileID: 0}
  m_GameObject: {fileID: 1852876170}
  m_Enabled: 1
  serializedVersion: 10
  m_Type: 1
  m_Shape: 0
  m_Color: {r: 1, g: 0.95686275, b: 0.8392157, a: 1}
  m_Intensity: 1
  m_Range: 10
  m_SpotAngle: 30
  m_InnerSpotAngle: 21.80208
  m_CookieSize: 10
  m_Shadows:
    m_Type: 2
    m_Resolution: -1
    m_CustomResolution: -1
    m_Strength: 1
    m_Bias: 0.05
    m_NormalBias: 0.4
    m_NearPlane: 0.2
    m_CullingMatrixOverride:
      e00: 1
      e01: 0
      e02: 0
      e03: 0
      e10: 0
      e11: 1
      e12: 0
      e13: 0
      e20: 0
      e21: 0
      e22: 1
      e23: 0
      e30: 0
      e31: 0
      e32: 0
      e33: 1
    m_UseCullingMatrixOverride: 0
  m_Cookie: {fileID: 0}
  m_DrawHalo: 0
  m_Flare: {fileID: 0}
  m_RenderMode: 0
  m_CullingMask:
    serializedVersion: 2
    m_Bits: 4294967295
  m_RenderingLayerMask: 1
  m_Lightmapping: 4
  m_LightShadowCasterMode: 0
  m_AreaSize: {x: 1, y: 1}
  m_BounceIntensity: 1
  m_ColorTemperature: 6570
  m_UseColorTemperature: 0
  m_BoundingSphereOverride: {x: 0, y: 0, z: 0, w: 0}
  m_UseBoundingSphereOverride: 0
  m_UseViewFrustumForShadowCasterCull: 1
  m_ShadowRadius: 0
  m_ShadowAngle: 0
--- !u!4 &1852876172
Transform:
  m_ObjectHideFlags: 0
  m_CorrespondingSourceObject: {fileID: 0}
  m_PrefabInstance: {fileID: 0}
  m_PrefabAsset: {fileID: 0}
  m_GameObject: {fileID: 1852876170}
  m_LocalRotation: {x: 0.40821788, y: -0.23456968, z: 0.10938163, w: 0.8754261}
  m_LocalPosition: {x: 0, y: 3, z: 0}
  m_LocalScale: {x: 1, y: 1, z: 1}
  m_ConstrainProportionsScale: 0
  m_Children: []
  m_Father: {fileID: 0}
  m_RootOrder: 2
  m_LocalEulerAnglesHint: {x: 50, y: -30, z: 0}
--- !u!114 &1852876173
MonoBehaviour:
  m_ObjectHideFlags: 0
  m_CorrespondingSourceObject: {fileID: 0}
  m_PrefabInstance: {fileID: 0}
  m_PrefabAsset: {fileID: 0}
  m_GameObject: {fileID: 1852876170}
  m_Enabled: 1
  m_EditorHideFlags: 0
  m_Script: {fileID: 11500000, guid: 474bcb49853aa07438625e644c072ee6, type: 3}
  m_Name: 
  m_EditorClassIdentifier: 
  m_Version: 1
  m_UsePipelineSettings: 1
  m_AdditionalLightsShadowResolutionTier: 2
  m_LightLayerMask: 1
  m_CustomShadowLayers: 0
  m_ShadowLayerMask: 1
  m_LightCookieSize: {x: 1, y: 1}
  m_LightCookieOffset: {x: 0, y: 0}
--- !u!1001 &1854249014
PrefabInstance:
  m_ObjectHideFlags: 0
  serializedVersion: 2
  m_Modification:
    m_TransformParent: {fileID: 0}
    m_Modifications:
    - target: {fileID: 3834094230017856042, guid: 49cfa529ac3d5414e96f77d053e88905,
        type: 3}
      propertyPath: m_RootOrder
      value: 6
      objectReference: {fileID: 0}
    - target: {fileID: 3834094230017856042, guid: 49cfa529ac3d5414e96f77d053e88905,
        type: 3}
      propertyPath: m_LocalPosition.x
      value: 0
      objectReference: {fileID: 0}
    - target: {fileID: 3834094230017856042, guid: 49cfa529ac3d5414e96f77d053e88905,
        type: 3}
      propertyPath: m_LocalPosition.y
      value: 0
      objectReference: {fileID: 0}
    - target: {fileID: 3834094230017856042, guid: 49cfa529ac3d5414e96f77d053e88905,
        type: 3}
      propertyPath: m_LocalPosition.z
      value: 120
      objectReference: {fileID: 0}
    - target: {fileID: 3834094230017856042, guid: 49cfa529ac3d5414e96f77d053e88905,
        type: 3}
      propertyPath: m_LocalRotation.w
      value: 1
      objectReference: {fileID: 0}
    - target: {fileID: 3834094230017856042, guid: 49cfa529ac3d5414e96f77d053e88905,
        type: 3}
      propertyPath: m_LocalRotation.x
      value: 0
      objectReference: {fileID: 0}
    - target: {fileID: 3834094230017856042, guid: 49cfa529ac3d5414e96f77d053e88905,
        type: 3}
      propertyPath: m_LocalRotation.y
      value: 0
      objectReference: {fileID: 0}
    - target: {fileID: 3834094230017856042, guid: 49cfa529ac3d5414e96f77d053e88905,
        type: 3}
      propertyPath: m_LocalRotation.z
      value: 0
      objectReference: {fileID: 0}
    - target: {fileID: 3834094230017856042, guid: 49cfa529ac3d5414e96f77d053e88905,
        type: 3}
      propertyPath: m_LocalEulerAnglesHint.x
      value: 0
      objectReference: {fileID: 0}
    - target: {fileID: 3834094230017856042, guid: 49cfa529ac3d5414e96f77d053e88905,
        type: 3}
      propertyPath: m_LocalEulerAnglesHint.y
      value: 0
      objectReference: {fileID: 0}
    - target: {fileID: 3834094230017856042, guid: 49cfa529ac3d5414e96f77d053e88905,
        type: 3}
      propertyPath: m_LocalEulerAnglesHint.z
      value: 0
      objectReference: {fileID: 0}
    - target: {fileID: 3834094230017856043, guid: 49cfa529ac3d5414e96f77d053e88905,
        type: 3}
      propertyPath: m_Name
      value: 2WayRampBlack (1)
      objectReference: {fileID: 0}
    m_RemovedComponents: []
  m_SourcePrefab: {fileID: 100100000, guid: 49cfa529ac3d5414e96f77d053e88905, type: 3}
--- !u!1001 &2029846353
PrefabInstance:
  m_ObjectHideFlags: 0
  serializedVersion: 2
  m_Modification:
    m_TransformParent: {fileID: 0}
    m_Modifications:
    - target: {fileID: 3834094230017856042, guid: 49cfa529ac3d5414e96f77d053e88905,
        type: 3}
      propertyPath: m_RootOrder
      value: 8
      objectReference: {fileID: 0}
    - target: {fileID: 3834094230017856042, guid: 49cfa529ac3d5414e96f77d053e88905,
        type: 3}
      propertyPath: m_LocalPosition.x
      value: 0
      objectReference: {fileID: 0}
    - target: {fileID: 3834094230017856042, guid: 49cfa529ac3d5414e96f77d053e88905,
        type: 3}
      propertyPath: m_LocalPosition.y
      value: 0
      objectReference: {fileID: 0}
    - target: {fileID: 3834094230017856042, guid: 49cfa529ac3d5414e96f77d053e88905,
        type: 3}
      propertyPath: m_LocalPosition.z
      value: 360
      objectReference: {fileID: 0}
    - target: {fileID: 3834094230017856042, guid: 49cfa529ac3d5414e96f77d053e88905,
        type: 3}
      propertyPath: m_LocalRotation.w
      value: 1
      objectReference: {fileID: 0}
    - target: {fileID: 3834094230017856042, guid: 49cfa529ac3d5414e96f77d053e88905,
        type: 3}
      propertyPath: m_LocalRotation.x
      value: 0
      objectReference: {fileID: 0}
    - target: {fileID: 3834094230017856042, guid: 49cfa529ac3d5414e96f77d053e88905,
        type: 3}
      propertyPath: m_LocalRotation.y
      value: 0
      objectReference: {fileID: 0}
    - target: {fileID: 3834094230017856042, guid: 49cfa529ac3d5414e96f77d053e88905,
        type: 3}
      propertyPath: m_LocalRotation.z
      value: 0
      objectReference: {fileID: 0}
    - target: {fileID: 3834094230017856042, guid: 49cfa529ac3d5414e96f77d053e88905,
        type: 3}
      propertyPath: m_LocalEulerAnglesHint.x
      value: 0
      objectReference: {fileID: 0}
    - target: {fileID: 3834094230017856042, guid: 49cfa529ac3d5414e96f77d053e88905,
        type: 3}
      propertyPath: m_LocalEulerAnglesHint.y
      value: 0
      objectReference: {fileID: 0}
    - target: {fileID: 3834094230017856042, guid: 49cfa529ac3d5414e96f77d053e88905,
        type: 3}
      propertyPath: m_LocalEulerAnglesHint.z
      value: 0
      objectReference: {fileID: 0}
    - target: {fileID: 3834094230017856043, guid: 49cfa529ac3d5414e96f77d053e88905,
        type: 3}
      propertyPath: m_Name
      value: 2WayRampBlack (3)
      objectReference: {fileID: 0}
    m_RemovedComponents: []
  m_SourcePrefab: {fileID: 100100000, guid: 49cfa529ac3d5414e96f77d053e88905, type: 3}
